?0	;Won't loop

#0 w220
$F4 $02
r=84	;disable intro part
y10v178@4 t45 $DE$1E $12$36 q4C r=24 o5 c=12 <b=12 q3C >c=24 q5C <g=24 b-=24 a=24 g=24 f=24 q4c e=12 r=12 r=12 f=12 g=96 r=24 o5 c=12 <b-=12 q3C >c=24 <g=24 $E3$30$26 q5C b-=16 >c=16 d=16 q5D e=96 ^=48 


#1
y18v170q7e$DC $54 $02
@2 o4 c16 $dd $00 $0c $b7 ^8 $dd $00 $18 $b0 ^4 $dd $00 $30 $a4
y12v161@4 $DE$1E $12$36 q4C r=24 o4 a=12 a=12 q3C g=24 q5C e=24 f=24 f=24 d=24 d=24 q4C c=12 r=12 r=12 c=12 c=96 r=24 b-=12 g=12 q3C b-=24 e-=24 q5C f=16 f=16 b-=16 >c=96 ^=48 

#2
y18v170q7e$DC $54 $02
@2 o3 g16 $dd $00 $0c $b0 ^8 $dd $00 $18 $ab ^4 $dd $00 $30 $9f
y8v161@4 $DE$1E $12$36 q4C r=24 o4 f=12 f=12 q3C e=24 q5C c=24 d=24 d=24 o3 a+=24 a+=24 q4c a=12 r=12 r=12 a+=12 a=96 r=24 o4 g=12 f=12 q3C g=24 c=24 q5C d=16 d=16 f=16 g=96 ^=48 

#3
r=84
y10v161@4 $DE$1E $12$36 q4C r=24 o4 d=12 d=12 q3C c=24 q5C o3 g=24 b-=24 a=24 f=24 f=24 q4c f=12 r=12 r=12 f=12 f=96 r=24 o4 d+=12 d+=12 q3C d+=24 o3 g+=24 q5C a+=16 a+=16 >c=16 f=96 ^=48

#4
r=80
$EF $DF $12 $12
r=4
y10v230 q7f @26c=96 ^=96 ^=24 @26c=12 @26c=12 @26c=24 @26c=24 @26c=16 @26c=16 @26c=16 @26c=96 @26c=16 @26c=16 @26c=16
q7e @26c=6q7D @26c=6[q7c @26c=6q7b @26c=6]9 @26c=6q7a @26c=6 q6F @26c=48 

#5
r=84
v210@4 $DE$18$0E$3B y10 q6f o2 c=96 ^=96 ^=24 c=12 c=12 c=24 c=24 c=16 c+=16 d=16 q7fd+=96 q6fc+=16 d=16 d+=16 f=96 ^=48 

#6
r=84
v169@2 y20 q5B r=96 r=96 $DC$90$00 o4 e=6 g=6 b=6 o5 c=6 o4 g=6 b=6 o5 c=6 e=6 o4 b=6 o5 c=6 e=6 g=6 c=6 e=6 g=6 b=6 e=6 g=6 b=6 o6c=6 o5 g=6 b=6 o6 c=6 e=6 q7ao6 g=96 r=96 r=96 

#7
r=84
v160@2 y20 q59 r=4 r=96 r=96 $DC$90$00 o4 e=6 g=6 b=6 o5 c=6 o4 g=6 b=6 o5 c=6 e=6 o4 b=6 o5 c=6 e=6 g=6 c=6 e=6 g=6 b=6 e=6 g=6 b=6 o6c=6 o5 g=6 b=6 o6 c=6 e=6 q78o6 g=96 r=96 r=96 

#amk 1