#amk 2

#SPC {
	#game "SMWCentral Production 2"
}

#samples
{
	#default
	#AMM
	#sky_and_dream
	"conga.brr"
	"shekere.brr"
	"guiro.brr"
	"woodblock.brr"
}

#instruments {
	"shekere.brr"	$00 $00 $58 $04 $C3 ;@30
	"conga.brr"		$00 $00 $60 $04 $C3 ;@31
	"woodblock.brr"	$00 $00 $7F $04 $C3 ;@32
	@12				$00 $00 $60 $05 $37 ;@33
	"guiro.brr"		$8F $F3 $00 $04 $C3 ;@34
	@8				$BF $B1 $00 $0F $00 ;@35
	"CPanFlute.brr"	$AF $AD $00 $04 $00 ;@36
	@3				$CF $75 $00 $03 $00 ;@37
	@1				$AF $70 $00 $03 $00 ;@38
	@0				$8B $EF $00 $03 $00 ;@39
	@7				$AE $8F $00 $03 $00 ;@40
}

#0 w255
$EF $FF $16 $12
$F1 $05 $4E $01
$F4 $02
y10v133@30
[[(1)[t35q7fo4c16t41q75c16t35q78c16t41q73c16] ]]2
t35q7fc16t41q75c16t35q78c16t41q7fc16
t35q77c16t41q75c16t35q7ec16t41q73c16
/
[[(1)7
t35q78o4c16t41q74c16t35q7cc16t41q73c16
(1)6
t35q7fo4c16t41q75c16t35q7ac24q7dc48t41^48q7bc24
t35q7fo4c16t41^16t35^24q74c48t41^48q7ac24]]2
[[(1)
(3)[t35q7fo4c16t41q75c16t35q7cc16t41q7fc16
t35q75o4c16t41q7ac16t35q73c16t41q7fc16]
t35q78o4c16t41q7bc16t35q76c16t41q73c16
(1)
(3)
t35q78o4c16t41q7bc16t35q7dc16t41q77c16
(1)
(3)
t35q78o4c16t41q7bc16t35q76c16t41q73c16
(1)
t35q7fo4c16t41q75c16t35q7cc16t41q7fc16
t35q75o4c16t41q79c16t35q73c16t41q79c32q7cc32
t35q7fo4c16t41q7bc16t35q76c16t41q73c16]]2
[[(1)7
t35q78o4c16t41q74c16t35q7cc16t41q73c16
(1)6
t35q7fo4c16t41q75c16t35q7ac24q7dc48t41^48q7bc24
t35q7fo4c16t41^16t35^24q74c48t41^48q7ac24]]2
(1)3
t35q7fo4c16t41q75c16t35q7cc16t41q75c16
(1)3
t35q7fc24q76c48t41^48q78c24t35q7fc16t41q78c16
(1)4
t35q7fo4c16t41q75c16t35q78c16t41q7bc16
(1)
t35q7fo4c16t41q75c16t35q78c16t41q7bc16
t35q7ao4c32q77c32t41q7ac16t35q7fc16t41^16
(1)3
t35q7fo4c16t41q75c16t35q7cc16t41q75c16
(1)3
t35q7fc24q76c48t41^48q78c24t35q7fc16t41q78c16
(1)4
t35q7fo4c16t41q75c16t35q78c16t41q7bc16
t35q78o4c16t41q7bc16t35q7cc16t41q7dc16
t35q7fo4c16t41q7dc16t35q7cc16t41q7ac16
t35q78o4c16t41q76c16t35q74c16t41q73c16
[r1]99

#1
r2.^16
y12v165@31
q77o4e32q76e32q7de16q7be16
/
(6)[@31y12q7f<f8$DD $00 $18 a q7af16q75>g16@32q7fy9c16@31y12q7cc16@32y9q7bc16@31y12q79c8.@33y8q75<a24q77a24q79a24q7f>c16q78<a8q74a16
@31y12q7ff8$DD $00 $18 a q75f16q7af8q7d>c8q7ac16v180@34y10q7f<g4$DD $00 $30 >d ^16v165@32y9q77<a16q7aa16q7ca16
@31y12q7ff8$DD $00 $18 a q7af16q75>g16@32q7fy9c16@31y12q7cc16@32y9q7bc16@31y12q79c8.@33y8q75<a24q77a24q79a24q7f>c16q78<a8q74a16
@31y12q7ff16$DD $00 $0C g q79g16q77>c16q73<g16q7ag16q75>c16q7bg16q74<g16v180@34y10q7fg8.$DD $00 $24 >c+ v165@33y8q7ac16q7d<a16@32y9q7ca32q75a32q77a16q7aa16]2
[@31y12q7ff8$DD $00 $18 a q7af16q7ca16q7a>g16q7dc16q7b<a16>q79c8@32q7ay9<a16q7ca16q7f>c32q7dc32q7bc32q79c32q77c32q74c32@33y8q7cc16q79c16
@31y12q7c<a16q78a32q77a32q7aa8q7cf16q77>g16q7bc16v180@34y10q7f<g4$DD $00 $30 >d ^16v165@32y9q7a<a16q7ca16q7fa8
@31y12q7ff8$DD $00 $18 a q7af16@33y8>e16q7dc16q7bc16q7ec16q7d<a16@32y9q7aq7bq7f>c16c16c16@31y12q79c32q7cc32q7dc16q7bc16q79g16q7b<a16
q7ff8v180@34y10q7fg4$DD $00 $30 >d v165@32y9q78<a24q7ba24q7da24q7f>c16q7cc32q7ac32@31y12q7de16q79c16q7bc16@33y8q77<a16q7da16q7ba16]2
(6)2
[@31y12o4q7dc16q77c16q7ac16@33y8q7fa+16@31y12q77c16@33y8q7fa+16@31y12q77c16q7ac16q7dc16@32y9q78c16q7bc16q7fc8@33y8q7fc32q79c32q7cc16q7fc16
@31y12q7f<f8$DD $00 $18 a q7af16q7ff8$DD $00 $18 a q7af16q7ff8$DD $00 $18 a ^16@32y9q7fa16q7ba16q7fa16v180@34y10q7fg4$DD $00 $30 >d v165
@31y12q7dc16q77c16q7ac16@33y8q7ca+16q7fg16q7ae16q7f<a+16q78>c16@31y12q7f<c8@32y9q78a16q75a16q73a16q79a16q75a16q7ba16
q7f>c16q78c32q7ac32q7fc16q7ac16q7f<a16q7aa16q76a16@33y8q78>g16q7fg16q78g32q7bg32q7fg16q78g16q7be16@31y12q77o4e32q76e32q7de16q7be16]2
[r1]99

#2
r2..
v235@35
q7co3c8
/
(5)[q7f<f8q7br16>a16r16a16f16a16q7f<d+16q7b>d16d+16f16d+16d16<a+16>c16
q7f<f8q7br16>a16r16a16f16a16q7f<a+16q7b>a+16a16f16d+16d16c16<a+16
q7ff8q7br16>a16r16a16f16a16q7f<d+16q7b>d16d+16f16d+16d16<a+16>c16
q7f<f8q7br16>a16a+16a16f16g16q7f<c16q7b>d16d+16d16<a+16d16d+16e16]2
[q7ff8q7dr16f16c16f16.r32>d+8d16c16<a16a+16>c8r16
q7f<f+8q7dr16f+16d16a16>c16f+8d+16d16<a16>c16<a16f+8
q7fg8q7dr16g16d16g16.r32>e8d16<a+16>c16d16<a+16g8
q7fc8q7dr16c16g16>c16.r32e8c16<a+16>c16<a+16a16e16g16]2
(5)2
[q7ff8q7dr16f16>f16c16d16q7fd+8.q7dd16r16c16<a8.
q7fd+8.q7d>g16d+16c16d16q7fd+8.q7dd16r16<a+16g8.
q7f<a+8q7dr16a+16>a+16>c16d16q7fc8.q7d<a+16r16a16f8.
q7fc8.q7d>e16c16<a16a+16q7f>c8.q7d<a+16r16g16e8.]2

#3
r1
/
y9v117@36$DF
(2)[o4b4$DD $06 $02 >c ^16r16<a+16a16g4^16r16f16g16
a8a+16a16r16f16c16r16c4^16r16c16d16
d+8f16d+16r16d16c16<a+16>c4^16r16a+16r16
a8.f16r16a+16a16f4^8r8.
o4b4$DD $06 $02 >c ^16r16<a+16a16g4^16r16f16g16
a8a+16a16r16f16c16r16c4^16r16c16d16
d+8f16g16r16d+16c16r16f4^16r16a16r16
a+16a16f16c16f16>d16r16d4$DD $06 $02 c ^8r16]r8
y10@38v155$DE $0C $0F $30
(4)[o4a4r16a16a+16>c3r12r48<a+16>c16
d8d+16d16c16<a8>a8g16f+16d+16d12d+12e12
f4r16g16a16e8.d8<a+8g16f16
e4r16g16a+16>g16r16g16f8e8]f8
(4)f8
y9v117@36$DF
(2)r8
y11v146@40$DE $10 $0D $1D
o4a+8.a4..g8a16a+8.
g8.>d2^8.g8
d+8.d8.<a+16a8.a+8>c16d8.
c8.<a+8.a8g16a16g16f8.g8
f8.>c4..<g8a16a+8.
g8.>d2^8.g8
a+8.a8.f16d8.>d8c8<a+8
g8.f8.e16c8.<a+8a16a+16a16g16
[r1]99

#4
r8y9v131@37
o3g8.a+8g16
r32q79g16q7cg16g16q79a+16q7ca+16a+16q7bg16.
/
y11v52@36$ED $2C $AD $DF
r8
(2)
y9@38v65$DE $0C $0F $30
r8
(4)
y11v115@39$DE $0C $12 $45
o5a4r16>c8<a+8.a8g8a8
f+4r16a16>c16d8.d+8d8c8
<a+4r16>c16c+16d8.g8f8d16c+16
c4r16<a+8>e16r16e16d8c32r32c16<a+8
y11v52@36$ED $2C $AD $DF
r8
(2)
y9v136@40$DE $10 $0D $1D
o4d8.c4..<a+8>c16d8.
<a+8.>g2^8.a+8
g8.f8.d16c8.d8<a16a+8.
>e8.d8.c8<a+16>c16<a+16a8.a+8
a8.>f4..<a+8>c16d8.
<a+8.>g2^8.a+8
g8.f8.d16<a+8.>a+8a8g8
e8.d8.c16e8.d8c16<g16>c16e16
[r1]99

#5
y9v131@37
o3c8.e8.e8q77>e16q7ae16q7de16q77d16q7ad16q7dd16q79c16q7cc16
/
v131
(7)[q7f<a8f16>c8<a16f16d+16g8d+16a+8g16d+16g16
a8f16>c8<a16f16a16g8c16a+8a16g16f16]4
v115
[a16>d+16<a16>d+16<a16>d+16<a16>f16d+32r32d+16d32r32d16c32r32c16<a32r32a16
>d16f+16c16f+16c16f+16c16a16f+32r32f+16d+16d32r32d16c16<a32r32a16
a+16>e16<a+16>e16<a+16>e16<a+16>g16e32r32e16d32r32d16c32r32c16<a+32r32a+16
g16>e16<a+16>e16<a+16>e16<a+16>g16f16e32r32e16c16<a+32r32a+16>c16<a+16]2
v131
(7)4
[o4c16r16c16f16c16c16f16d+16c16r16c16f16c16c16f16d+16
<a+16r16a+16>d+16<a+16a+16>d+16d16<a+16>d+16d16<a+16r16a+16>d+16d16
<a+16r16a+16a+16>d16r8f16r16f16d16<a+16r16a+16>c16<a+16
a+16r16a+16a16g16r16g16>c16r16c16<a+16g16g16>c16<a+16g16]2
[r1]99

#6
r1
/
y11v110@37
(8)[o3f16<a8>d+8c16<a16>c16d+16<g8>c8<a+16>c16d+16
f16<a8>d+8c16<a16>c16d16<g8>d8<f16a+16>d16]4
v100
[f16.>c16<f16>c16<f16>c16<f16.a+16a16f16a16f16d+16c16d+16
f+16.>d16<a16>d16<a16>d16<a16.>d16<a16>c16<f+16a16f+16d16f+16
g16.>d16<g16>d16<g16>d16<g16.a+16g16a16g16f16d16e16d16
e16.>c16<g16>c16<g16>c16<g16.a+16>c16<a+16g16e16g16e16c16]2
v110
(8)4
[o3f16r16f16a16f16f16a16g16d+16r16d+16a16d+16d+16a16g16
d+16r16d+16g16d+16d+16g16f16d+16g16f16d+16r16d+16g16f16
d16r16d16d16f16r8a16r16a16f16d16r16d16f16d16
e16r16e16d16c16r16c16e16r16e16d16c16c16e16d16c16]2
[r1]99

#7
r1
/
[r1]12
y9@38v65
o5f8
(4)f8
[r1]99