#amk 2

#SPC
{
	#author "S.N.N."
	#comment "Grass/Industrial castle theme"
	#game "SMW Central Production 2"
}

#samples
{
	#default
	"@8@14.brr"
	"CCymbal.brr"
}

#instruments {
"CCymbal.brr"	$AF $51 $00 $03 $C0 ;@30
"@8@14.brr"		$9F $B0 $00 $06 $00 ;@31
	@6			$BB $AE $00 $03 $00 ;@32
	@4			$BB $AE $00 $03 $00 ;@33
	@21			$8F $E0 $00 $03 $C9 ;@34
	@29			$BF $D2 $00 $03 $28 ;@35
	@22			$00 $00 $3A $05 $80 ;@36
	@1			$83 $EA $00 $03 $00 ;@37
	@1			$8F $ED $00 $03 $00 ;@38
}

#0 w190 t67
$EF $F7 $B8 $40
$F1 $03 $58 $00
$F4 $02
/
v230 @31
(5)[ y12 o3c+8 > c+8 < y10 c+8 < c+8 > y8 c+8 < c+8 v150 y10 c+8 v100 c+8
v220
y12 c+8 > c+8 < y9 c+8 > e8f+8 y11 c+8 e8 < y10 b8]4
(3)[o3 y12 c+8 > c+8 < c+8 > y10 c+16 < c+16 e8 y8 f+8b8 y12 e16r8^16
e8f+8 y9 b8e8f+8 y11 e8< y10 b8]2
>
v100  
(1)[$E8 $8F $FF c+16c+16c+16c+16c+16c+16c+16c+16c+16c+16c+16c+16c+16c+16c+16c+16
$E8 $8F $20 c+16c+16c+16c+16c+16c+16c+16c+16c+16c+16c+16c+16c+16c+16c+16c+16]1
(2)[$E8 $8F $FF f+16f+16f+16f+16f+16f+16f+16f+16f+16f+16f+16f+16f+16f+16f+16f+16
$E8 $8F $20 f+16f+16f+16f+16f+16f+16f+16f+16f+16f+16f+16f+16f+16f+16f+16f+16]1
(1)
$E8 $8F $FF g+16g+16g+16g+16g+16g+16g+16g+16g+16g+16g+16g+16g+16g+16g+16g+16
$E8 $8F $20 g+16g+16g+16g+16g+16g+16g+16g+16g+16g+16g+16g+16g+16g+16g+16g+16
(1)
(2)
$E8 $8F $FF e16e16e16e16e16e16e16e16e16e16e16e16e16e16e16e16
$E8 $8F $20 e16e16e16e16e16e16e16e16e16e16e16e16e16e16e16e16
$E8 $8F $B0 g+16g+16g+16g+16g+16g+16g+16g+16g+16g+16g+16g+16g+16g+16g+16g+16
a16a16a16a16a16a16a16a16a16a16a16a16a16a16a16a16
< v240
(3)2
[o2 y12 b8 > b8 < b8 > y10 b16 < b16 > d8 y8 e8a8 y12 d16r8^16
d8e8 y9 a8d8e8 y11 d8<a8]2
(5)2

;========================================================;

#1

;=======;
;CHORD 1;
;=======;
[r1]4
y11v180@32$DE $06 $14 $58
(10)[o4c+8c+8c+8c+8>c+8r4<c+8e8e8e8>e8r8e8]1 f+8r8
(10) d+8r8
(10) f+8r8
(10) d+8r8

;SYNTH;
v200@38$DE $06 $0E $50
(15)[o5g+4.e4.r8e16d+16
<g+4^8$DD $00 $18 >cc+4r8c+8d+8
e4f+16g+16f+8d+16e16d+8c+16d+16<b16>c+16
f+8.e8.d+8b8.g+8.e8
>c+4e16d+16<b16g+16>c+16<b16e16c+16f+8g+8
e4f+16g+16d+16e16c+4<b16g+16>d+16e16
g+8.f+8.e8b8.a8.g+8
$F4 $01>d+8.c+32<b32g+32f+32e32d+64$F4 $01^64>c+16d+16e16r16f+16r16g+4]
y9
(16)[o5g+2b8.a8.g+8
e4.f+16g+16f+4.r8
>d+8r8d+8c+8e8.d+8.c+8
f+8.e8.d+8<a8.b8.>c+8
<g+4.a16g+16e4.r8
d+16.r16.c+16.r16.<b8>f+8r16e8r16d+8
g+4^4$DD $06 $18 f+^8r8f+16g+16>d+4
r8e16d+16c16<a16g+16f+16g+16a16f+16d+16c16<g+16]
y11@4 v190
(17)[o5c+4^8<b16>c+16<f+4^8g+16a16
e8f+8g+8a8b8>d4c+16<b16
>c+4^8<b16>c+16d4^8c+16d16
e8d4<a16b16>c+2
<b4^8a16b16f+4g+8a4
g+8a4b8>e4d+16d16
c+8c+8r8<a4^8b8b8
r8f+4^8e8f+8d4
c+1]
[r1]20

;========================================================;

#2

;;;;;;;;;
;CHORD 2;
;;;;;;;;;
[r1]4
y9v140@33$DE $06 $14 $58
(20)[o3c+8c+8c+8c+8>c+8r4<c+8e8e8e8>e8r8e8]1 f+8r8
(20) d+8r8
(20) f+8r8
(20) d+8r8
y10v220$DF
[@36o4c8 @36o4c8 @36o4c8 @36o4c8 @36o4c8 @36o4c8 @36o4c8 @36o4c8]16
@1 $ED $7F $ED $DE $06 $0E $50
[o5
y11 v200 c+8c+8>c+8 v175 c+8<g+8g+8
y9 v150 c+8c+8>c+8 v125 c+8<g+8g+8
y11 v100 c+8c+8> v75 c+8c+8<g+8g+8
y9 v50 c+8c+8>c+8c+8<g+8g+8
r1]
$FA $02 $FE
*
$FA $02 $00
[r1]20

;========================================================;

#3
$FA $03 $40
o4 v255@34
c2^4 @34 c4
@34 c1
@34 c2^4 @34 c4
@34 c2 @34 c16 @34 c16 @34 c8 @34 c16 @34 c16 @34 c8
$F4 $03v225@30 q7fo3g+4 o4  v200@35c4
(32)[$F4 $03v255@34 c4 $F4 $03v200@35c4]15
v225@30 q7fo3g+4 o4    (30)[v200 @35c8 v125 @35c8 v200 @36o3g4 @35>c8 v125 @35c8]1
(31)[$F4 $03v255@34 c8 v255@34 c8 $F4 $03v200 @35c8 v125 @35c8  v200 @36o3g4  @35>c8 v125 @35c8 ]3
v225@30 q7fo3g+4 o4  (30) (31) $F4 $03v255@34 c4 $F4 $03(30) (31)
v225@30 q7fo3g+4 v200o4 @35c4
(32)7
v225@30 q7fo3g+4 v200o4  @35c4
(32)6
v225@35c4 v200@35c8 @35c16 @35c16
v225@30 q7fo3g+4 v200o4 @35c4
(32)15
v225@30 q7fo3g+2 o4$F4 $03 
[r1]20

;========================================================;

#4

y10o3v220
[@36o4c8@36o4c16@36o4c16@36o4c8@36o4c8@36o4c16@36o4c16@36o4c8 @36o4c16@36o4c16@36o4c16@36o4c16]4
[@36o4c8@36o4c8 @36o4c8 @36o4c8@36o4c8@36o4c8 @36o4c8 @36o4c16@36o4c16]8
y9v180@37 
o4e1^1
a1^1
b1g+1
>c1d+1
e1<g+1
>d+1<a1
>c+1<g+1
f+1d+1
c+1^1
c+1^1
<b1^1
b1^1
[r1]20

;========================================================;

#5

;=====;
;NOISE;
;=====;
r1 v125
(50)[ y13 @0 $F8 $1A c+8 y12 @0 $F8 $11 c+8r8 y11 @0 $F8 $11 c+8 y10 @0 $F8 $11 c+8r8 @0 $F8 $11 c+8r1^8
  y7 @0 $F8 $1A c+8 y8 @0 $F8 $11 c+8r8 y9 @0 $F8 $11 c+8 y10 @0 $F8 $11 c+8r8 @0 $F8 $11 c+8r1^8 ]4
(51)[v125y13 @0 $F8 $1A c+8 y12 @0 $F8 $11 c+8r8 y11 @0 $F8 $11 c+8 y10 @0 $F8 $11 c+8r8 @0 $F8 $11 c+8r8]r1
y7 @0 $F8 $1A c+8 y8 @0 $F8 $11 c+8r8 y9 @0 $F8 $11 c+8 y10
v220@15o4f+2c+1(51)
v220@15o3f+1(52)[v125y7 @0 $F8 $1A c+8 y8 @0 $F8 $11 c+8r8 y9 @0 $F8 $11 c+8 y10 @0 $F8 $11 c+8r8 @0 $F8 $11 c+8r8]
v220@15o3e1(51)
v220@15o3g+1(52)
v220@15o4c+1(51)
v220@15o4c+1(52)
v220@15o3b1v125y13 @0 $F8 $1A c+8 y12 @0 $F8 $11 c+8r8 y11 @0 $F8 $11 c+8 y10
v220@15o3f+2b1(52)
@15
r2(70)[v220 o3b8>c+8r8c+8r8v160c+8r8v130c+8r8v100c+8r8v70c+8]1
r2 (70)

[r1]20

;========================================================;

#6

[r1]12
v200@37
o3g+1^1 >c+1^1 e1^1 d+1f+1 <g+1>e1 <a1>d+1 <g+1>c+1 d+1 c1
[@36o4c8 @36o4c8 @36o4c8 @36o4c8 @36o4c8 @36o4c8 @36o4c8 @36o4c16 @36o4c16]8
[r1]20

;========================================================;

#7
[r1]12
r8
y8v105@38
(15)
y12
(16)
y8@4 v90
(17)
[r1]99