#amk 2

#SPC {
	#author "Torchkas"
	#game "SMW Central Production 2"
}

#samples {
	#default
	"@8@14.brr"
	"clank3.brr"
	"valve.brr"
}

#instruments {
"@8@14.brr"		$AF $8F $00 $03 $00 ;@30
	@6			$BC $94 $00 $03 $00 ;@31
	@21			$8F $E0 $00 $03 $C9 ;@32
	@29			$BF $D2 $00 $03 $28 ;@33
	@1			$BE $8F $00 $06 $00 ;@34
	@22			$CF $80 $00 $05 $80 ;@35
"clank3.brr"	$00 $00 $64 $05 $90 ;@36
"valve.brr"		$AF $6F $00 $04 $B0 ;@37
"clank3.brr"	$00 $00 $52 $05 $90 ;@38
	@9			$8F $E0 $00 $02 $A6 ;@39
	@3			$BF $73 $00 $03 $00 ;@40
	@6			$AC $A8 $00 $03 $00 ;@41
	@13			$AE $AB $00 $03 $00 ;@42
}

#0 w210 t43
$EF $FF $0F $0F
$F1 $04 $54 $01
$F4 $02
r8.
y10v245@30
r8q7fo4c+16q73c+16
/
[[ [q7fo4d16q73d16]11q7fd16q7e<d32q73d32q7eg16>d16q7cg16q7e<a+16q7c>f16g16q7ed16<a+16]]2
[[(3)[q7fg16q73g16q7fg32f32g16>f16g16<a+16g16>d16d16c+16c16q73c16q7fc16<a+16>c16]
q7da+32q72a+32q7da+16>c32q72c32q7dc16q7e<g16q7f<g16f16g16>c32q72c32q7f<a+32>c32d16<g16q73g16q7fd16>d16<d16
(3)
q7d>a+32q72a+32q7da+16>c32q72c32q7dc16q7e<g16q7f<g16f16g16>c32q72c32q7fc16d16<g16q73g16q7fg16d8]]2
(5)[o3g8.g8.g8a+8g16a+8>d16c+16c16]2
(6)[<f8.f8.f8g+8f8g+16>c16<b16a+16]2
(5)2
(6)2
(14)[q7fo3g16q7bg16q7fg16q7bg16q7fg16q7bg16q7fg16q7bg16q7fa+16g16a+16>c16<g16>d16c+16c16]2
(15)[q7fo3f16q7bf16q7ff16q7bf16q7ff16q7bf16q7ff16q7bf16q7fg+16a+16f16>c16<f16>c16<b16a+16]2
(14)2
q7fo3d16q7bd16q7fd16q7bd16q7fd16q7bd16q7fd16q7bd16q7ff+16g16d16a16d16a16a+16b16
(15)
(31)[q7f>g8q43g8q7fd8q43d8]2
(32)[q7fg8q43g8q7fe8q43e8]2
(31)2
(32)2
(31)2
[q7ff+8q43f+8q7fd+8q43d+8]2
(31)2
q7fg8q43g8q7fe8q43e8q7fg16q73g16q7fg16q73g16q7fc+16q73c+16q7fc+16q73c+16

#1
r4..
/
y10v150@31$DE $00 $0D $2C
[[ [q7fo5d16r16d32r32d32r32d16r16]4d16<a+16>d16f16g16d16<a+16g16]]2
y9v135
[[(1)[r8o4a+16r16a+16a+16r8a16a16g+16g16r8g16g16]
r8>c16<a+16g16r16g16r8f16r16e16r16d16f+16a16
(1)
r8>c16<a+16g16r16g16r8f16d16g16r16a+16g16d16]]2
y8v130@39$DF
(7)[r8o3a+16r8.>e16d16r8e16a+16r16f16g16e16]2
(8)[r8<g+16r8.>d16c16r16d16r16g+16r16d+16f16g+16]2
(7)2
(8)2
v150
(19)[r16o3a+16a+16a+16>d16f16e16d16g16r16e16a+16r16f16g16e16]2
(20)[r16<g+16g+16g+16>c16d+16d16c16f16d16r16g+16r16d+16f16g+16]2
(19)2
r16<f+16f+16f+16a16>c16<b16a16>d16d16d16f16r16d16f16f+16
r16<g+16g+16g+16>c16d+16d16c16f16f16f16g+16r16d+16f16g+16
y9v175@42$DE $00 $10 $44
q4fr8[o4d8r8]4
[e8r8]4
[d8r8]4
[e8r8]4
[d8r8]4
[d+8r8]4
[d8r8]4
[e8r8]4

#2
r4..
/
y12v140@31$DE $00 $0D $2C
[[ [q7fo4a16r16a32r32a32r32a16r16]4a+16g16a+16>d16d16<a+16g16d16]]2
y11v135
[[(2)[r8o4d16r16c16d16r8f+16f+16f16e16r8e16e16]
r8f16g16<a+16r16>d16r8<a+16b16>c16r16<a16>c16d16
(2)
r8f16g16<a+16r16>d16r8<a+16r16g16r16>f16d16<a+16]]2
y12v130@39$DF
(9)[r8o3d16r8.g16f16r8>c16g16r16<a16a+16>c16]2
(10)[r8<c16r8.f16d+16r16f16r16>d+16r16<g16g+16a+16]2
(9)2
(10)2
v150
(21)[r16o3d16f16d16f16a+16g16f16a+16r16>c16g16r16<a16a+16>c16]2
(22)[r16<c16d+16c16d+16g+16f16d+16g+16f16r16>d+16r16<g16g+16a+16]2
(21)2
r16<a16>c16<a16>c16f+16d16c16f+16d16f+16>c16r16<g16f16b16
r16c16d+16c16d+16g+16f16d+16g+16f16g+16>d+16r16<g16g+16a+16
y11v175@42$DE $00 $10 $44
q4fr8[o3b8r8]4
[>c8r8]4
[<b8r8]4
[>c+8r8]4
[<b8r8]4
[>c8r8]4
[<b8r8]4
[>c+8r8]4

#3
r4..
/
y8v140@31$DE $00 $0D $2C
[[ [o4f+16r16f+32r32f+32r32f+16r16]4g16d16g16a+16a+16g16d16<a+16]]2
y10v160@34$DE $10 $0F $23
(4)[r16o4d16a+16d16a+16a8g16>d16c16<f16>e16r16e16f8
r16<f16>d16<f16>c16<a+16g16d16<a+16>f16f+16g16r16g16a+8
r16d16a+16d16a+16a8g16>c16d16c16<a+16r16>f16d16g16
a16$DD $05 $01 a+r16a16g16a16g16d16<a+16>c16d16c16<g8a+16>c+16d16]2
y11v165@41$DE $0C $14 $22
(13)[r8.o4g16>d8<a+8a16a+16a16f8r16>f16d8
c16<a+16>c16<a+16g16f16g16a+16b16>c16<g8>d16c+16c16
r8f16d+16r16g+8f16a+32>c16.<g+16d+16r16<a+16>c16d+16
r16<g+16>f16c8d+8<a+16>f32g16.d+16<a+8g+16g16d+16]
r8>g16f16r16a+8e32<a+32a16a+16a16f8.r16>e16
f32r32f16e32r32e16d32r32d16c32r32<a+32a32a+16>c16d16<g8r8.
>d8.c8.<a+8g+16a+16g+16g8.g+8
a+16.>d+32f8g+8f16d+16>c8<g+16f16r16d+16f8
r16.y11v60@40$DF
(16)[o5g16d16f16g16a+16g16d16f16g16d16f16g16a+16f16e16d16]2
(17)[f16c16d+16f16g+16f16c16d+16f16c16d+16f16g+16d+16d16c16]2
(16)2
(18)[d16<a16>c16d16f+16d16<a16>c16d16<a16>c16d16f+16c16d16f+16]
(17)
v150@41$DE $00 $0D $2C
(34)[r32o5d16<g16r16f+16g16>d16e16f+16e16<b16r16>g32f+32d16d+16
e8r16a+8a16g16d16e16c16<a+16>c16g16r16f+8
d16<b16g8r8.>d16e16r16f+8e16d16<b16>d16
c+16<a16e8r8.b16>c+16r16d16c+16e16r16d8
g8r8.e32f+32g16d16b8r4>c16<b16
f+8r8.f32f+32f16d+16d16d+32r32f8d+16r16<a+8
b16>d16b8r8d16<b16a16>d+16b8r16>c16<b16g16
<g16>c+16a8r8b16a16>e32r32d32e32]d32r32c+32<b32a32r32b32a32>d32r32<a32f+32
[r1]99

#4
r4..
/
y10v145@31
[q7fo3d16r16]11d16<d16g16>d16g16<a+16>f16g16d16<a+16
*11>d16<d16>a+16a16g16f16>c16<a+16f16>f16
y9v140@34
[r16o3g16>f16<a+16>f16d8c16a16f+16c+16a+16r16a+16>c8
r16<<a+16>a16c16g16f16d16<g16f16>c16c+16d16r16d16f+8
r16<g16>f16<a+16>f16d8c16f+16a16f16e16r16>c16<g16>c16
c+16$DD $05 $01 dr16d16<a+16>c16<a+16g16d16f16g16f16<a+8>d16f+16g16]2
v120@40
(11)[o5g8f16a+8g16d8g16d8.a+8e8]2
(12)[f8d+16g+8f16c8f16c8.g+8d8]2
g8
v155@41$DE $0C $14 $22
o4a+16a16r16>d8<g16f16g16f16d8.r16g16
f32r32f16g32r32g16a+32r32a+16g32r32e32c32d16e16f16d8r8.
a+8.g+8.g8f8.d+8.d8
c8.g8g+16g8>c32r32c16<a+16g+16r16g16g+8
v135@40$DF
(16)2
(17)2
(16)2
(18)
(17)
v110@40
(33)[q7fo5g32q7c<b32q7f>d32q7cg32q7f<b32q7c>d32q7fg32q7cd32]4
[q7fg32q7c<a+32q7f>e32q7cc32q7f<a+32q7c>e32q7fc32q7ce32]4
(33)4
(35)[q7fg32q7c<g32q7f>c+32q7ce32q7f<a32q7c>c+32q7f<g32q7c>e32]4
(33)4
[q7ff+32q7c<a+32q7f>d+32q7cc32q7f<a+32q7c>d+32q7fc32q7cd+32]4
(33)4
(35)4

#5
r8.
y10v255@32$FA $03 $22
$F4 $03
q7fo4c16q7dc32q7fc32@33$F4 $03q7ac16q7cc16
/
$F4 $03
@32
[q7fo4c8]12c16c16@33$F4 $03q7bc16$F4 $03@32q7fc16c16@33$F4 $03q7bc16$F4 $03@32q7fc16@33$F4 $03q7bc16$F4 $03@32
[q7fo4c16q77c16]7q7fc16q79c32q76c32*4q7fc16@33$F4 $03q7bc16c16$F4 $03@32q7fc16c16@33$F4 $03q7bc32q78c32$F4 $03@32q7fc16@33$F4 $03q7bc16$F4 $03@32
[@32q7fc16q77c8q79c16@33$F4 $03q7bc16q76c16q72c16$F4 $03@32q77c16]16
(23)[@32q7fc8.c16@33$F4 $03q7bc8$F4 $03@32q7dc16@33$F4 $03q79c16$F4 $03@32q7fc8c8@33$F4 $03q7bc8$F4 $03@32q7dc16@33$F4 $03q79c16]3
(24)[@32q7fc8.c16@33$F4 $03q7bc8$F4 $03@32q7dc16@33$F4 $03q79c16$F4 $03@32q7fc16q7dc16q7fc16@33$F4 $03q7bc16$F4 $03@32q7fc16@33$F4 $03q78c32q7ac32q7bc16q7dc16]
(23)3
(24)
(27)[@32q7fc8@33$F4 $03q7bc16$F4 $03@32q7dc16q7fc16q7dc16@33$F4 $03q7bc16$F4 $03@32q7dc16q7fc8@33$F4 $03q7bc16$F4 $03@32q7fc8q7dc16@33$F4 $03q7bc16$F4 $03@32q7dc16]3
(28)[@32q7fc8@33$F4 $03q7bc16$F4 $03@32q7dc16q7fc16q7dc16@33$F4 $03q7bc16$F4 $03@32q7dc16q7fc8@33$F4 $03q7bc16$F4 $03@32q7dc16q7fc16@33$F4 $03q7ac32$F4 $03@32q7fc32@33$F4 $03q7dc32$F4 $03@32q7dc32@33$F4 $03q7fc32$F4 $03@32c32]
(27)3
(28)
@32q7fc8..
y9v70@41
(34)
y10v255
@32q7fc16q7dc32q7fc32@33$F4 $03q7ac16q7cc16

#6
r4..
/
y10v150
[[ [@36q7fo4c8q78c8@37q7fc4]3 @36c16q78c16@37q7fc8@36c16q78c16@37q7fc8]]2
[@38q7fc16c16@37c16@38q79c16q7fc16c16@37c8@38c16c16@37c16@38q79c16q7fc16c16@37c8@38c16c16@37c16@38q79c16q7fc16c16@37c8@38c16@37c16@38q79c16q7fc16@37c16@38c16@37c16@38q79c16]4
(25)[@36q7fc8@37c16@36c8q79f+16@37q7fc8@36c16q7ac16@37q7fc16@36c8c16@37c8]3
(26)[@36q7fc8@37c16@36c8q79f+16@37q7fc8@36c16q7ac16@37q7fc16@36c16q79f+16@37q7fc16@36c16@37c16]
(25)3
(26)
(29)[@38q7fc16c16@37c16@38c32c32c16c16@37c16@38c16c16c16@37c16@38c8@37c16@38c32c32q7dc32q7fc32]3
(30)[@38q7fc16c16@37c16@38c32c32c16c16@37c16@38c16f+16f+32f+32@37c16@38d+16d+16@37c16@38d+32d+32q7dc32q7fc32]
(29)3
(30)
[r4@37c4r4@36c4]8

#7
r4..
/
[r1]4
y11v85@34
r16
(4)2
y9@41$DE $0C $14 $22
(13)
v120@40$DF
r16o5f16a+8g16d8g16d8.a+8e8
(11)
(12)2
[r1]16