#amk 2

#pad $01E5

#option TempoImmunity
#option NoLoop

#0 t46 w255
$EF $FC $0F $0F
$F4 $02
@3v200q5a
o5e=4d=4e=4r=36
$F4 $03
(1)[@1$ED $2E $8E q7fo4a+12b24a+12b24g12d24f12g24c12c+24c12c+24
d12<g24a+12>c24<b24r6g4]
r=127

#1
r4
v215@14
o1g12>g24<g12>g24<f12>f24r12f24<e12>e24<e24>d24e24
<d12a+24d12f24g=40$DD $10 $18 c $DE $10 $0F $30>f4.
r=127

#2
r6v210
y12q77@28c24q7b@28c24
$F4 $03
y10q7f@21c8
$F4 $03
y12@28c8
$F4 $03
y10@21c12
$F4 $03
y12@28c24
$F4 $03
y10@21c24q7b@21c24
$F4 $03
y12@28c24
$F4 $03
y10q7f@21c8
$F4 $03
y12@28c12
$F4 $03
y10@21c8@21c24
$F4 $03
y12@28c24q7b@28c24q77@28c24q7f@28c12
$F4 $03
y10@21c8
$F4 $03
y12@28c24q7a@28c24y10q78@28c24y8@28c24y12@28c24y10q79o2a+24y8q7bf+24y12q7dd24y10q7f<a+=127

#3
r4v105
@6o4g4a4g4f4<b8r12$DE $10 $12 $34>f4.
r=127

#4
r4y11v105
@6d4c4c4d4<g8r12$DE $10 $12 $34b4.
r=127

#5
r4y8v140
q7a@23c8@23c12@23c24@23c12@23c24q77@23c24q73@23c24q7a@23c8@23c8@23c24
@23c12@23c24q75@23c12@23c24q7a@23c12q75@23c8q7a@23c24q7bo3g24q7cd24q7d<a24q7ee24q7f<b=127

#6
r4^12
y9v100
(1)
r=127

#7
r4y9v105
@6o3b4f4e4a+4d8r12$DE $10 $12 $34d4.
r=127