#amk 1

#instruments
{
@8 $00 $00 $7F $0F $00;30
@10 $00 $00 $7F $04 $00;31
@6 $F5 $E8 $00 $03 $00;32
@8 $FF $E7 $00 $0F $00;33
@1 $AF $8D $7F $03 $00 ;34
}

$EF $FF $20 $20
$F1 $04 $60 $00

#0 @30 v255 y12 o2 w255 t61
[a4 $DD $2C $04 $A1 ^8 $DD $14 $04 $9C ^8 $DD $14 $04 $9F ^8 $DD $14 $04 $9E ^8 $DD $14 $04 $9C ^8 $DD $14 $04 $9A ^8 $DD $14 $04 $95]2
/ @30 
[a4 $DD $2C $04 $A1 ^8 $DD $14 $04 $9C ^8 $DD $14 $04 $9F ^8 $DD $14 $04 $9E ^8 $DD $14 $04 $9C ^8 $DD $14 $04 $9A ^8 $DD $14 $04 $95]2
[[ [a4 $DD $2C $04 $A1 ^8 $DD $14 $04 $9C ^8 $DD $14 $04 $9F ^8 $DD $14 $04 $9E ^8 $DD $14 $04 $9C ^8 $DD $14 $04 $9A ^8 $DD $14 $04 $95
g4 $DD $2C $04 $9F ^8 $DD $14 $04 $9A ^8 $DD $14 $04 $9E ^8 $DD $14 $04 $9C ^8 $DD $14 $04 $9A ^8 $DD $14 $04 $99 ^8 $DD $14 $04 $95]3
a4 $DD $2C $04 $A1 ^8 $DD $14 $04 $9C ^8 $DD $14 $04 $9F ^8 $DD $14 $04 $9E ^8 $DD $14 $04 $9C ^8 $DD $14 $04 $9A ^8 $DD $14 $04 $95
a4 $DD $2C $04 $A1 ^8 $DD $14 $04 $9C ^8 $DD $14 $04 $9F ^8 $DD $14 $04 $A3 ^8 $DD $14 $04 $A1 ^4]]2
@33 >f+2 a4 > c+4
f+2 c+4 <a4
f2 a4 >c+4<
e2 a4 >c+4<
d2 g4 b4
>d4<b4g4d4

#1 v255 y6 o4
r1^1
/
[@22 c8 @22 c8 @23 c8 @22 c8]100


#2 y10 o4
r1^1
/
[v200 @21 c4 v255 @31 c8 v200 @21 c4 @21 c8 v255 @31 c8 v200 @21 c8]18
[r1]5
@31 v255 c8 v180 c8 v200 c8 v180 c8 v255 c8 v180 c8 v255 c16 v200 c16 v220 c16 v255 c16

#3 @32 v160 o5 $DE $00 $2D $30
r1^1/
@32 v160 $DC $C0 $00 a1 $DC $C0 $0A ^1<
(0)[$DC $C0 $14 a1 $DC $C0 $0A g1
$DC $C0 $00 a1 $DC $C0 $0A g1
$DC $C0 $14 a1 $DC $C0 $0A g1
$DC $C0 $00 a1 $DC $C0 $0A ^1]
v220 y8 @0 $DE $18 $10 $30 $ED $7A $E0 a4.g8a4e4
g4f+4e4d4
c+8d8e8c+8d4<b4
g4f+4e4a4
>a4.g8a4e4
g4f+4e4d4
a4b8>c+8<b4a4
g4e4a2
f+2a4b4
>c+4<b4a4f+4
f2a4f4
e2a4e4
<b2 $E8 $60 $00 ^2
> v255 c+2g2

#4 @32 v160 o5 $DE $00 $1D $30
r1^1/
e1 ^1<
[[ [e1 d1]3
e1 ^1]]2
f+1^1
f1 e1
d1 e2 g2

#5 @32 v160 o5 $DE $00 $1D $30
r1^1/
$DC $C0 $14 c+1 $DC $C0 $0A ^1<
[$DC $C0 $00 c+1 $DC $C0 $0A <b1>
$DC $C0 $14 c+1 $DC $C0 $0A <b1>
$DC $C0 $00 c+1 $DC $C0 $0A <b1>
$DC $C0 $14 c+1 $DC $C0 $0A ^1]2
$DC $C0 $00 >c+1 $DC $C0 $0A ^1
$DC $C0 $14 ^1 $DC $C0 $0A ^1
$DC $C0 $00 <b1 $DC $C0 $0A >c+2 <b2

#6 o3 $DE $00 $1D $30
r1^1/
r1^1
v220 @34 r4 e8a8 >c+6<a6>c+6
e2g8f+8e8d8
e2.c+8d8
e4c+4d8<b8g4
r4 e8a8 >c+6<a6>c+6
e2g8f+8e8d8
e2.c+8d8
e4g4a2
o4 @32 v160 y10 (0)
$DC $C0 $14 a1 $DC $C0 $0A ^1
$DC $C0 $00 ^1 $DC $C0 $0A ^1
$DC $C0 $14 g1 $DC $C0 $0A a2 >d2

#7 o3
r1^1/
[r1]10
@3 v180
[[ [a32e32]16
[g32d32]16 ]]3
[a32e32]32
[r1]10