#0 w240 t50 $F0

#0 @2 v240
o4[c8g8>c8<g8]2
t55[c+8g+8>c+8<g+8]2
t60[d8a8>d8<a8]2
t65[d+8a+8>d+8<a+8]2
t70[e8b8>e8<b8]4
/
[e8b8>e8<b8]4
;
#1 @12 v240
o6[d+4<b4]8
o6[d+8<b8]8
o6[d+16<b16]8
/
o6[d+16<b16]8

;
#2 @11 v200 $ED $1C $AA p20,40
o4c2g2
c+2g+2
d2a2
d+2a+2
/e4b4>e4<b4
;
#3 @0 v210 $ED $1F $88
o5c8c16<b16>c8<g8a+8a8g8f8
>c+8c+16c16c+8<g+8b8a+8g+8f+8
>d8d16c+16d8<a8>c8<b8a8g8
>d+8d+16d16d+8<a+8>c+8c8<a+8g+8
/>e8e16d+16e8<b8>d8c+8<b8a8
;                

#amk=1